{
  "configVersion": 2,
  "packages": [
    {
      "name": "_fe_analyzer_shared",
      "rootUri": "file:///C:/Users/AhmadSh/AppData/Local/Pub/Cache/hosted/pub.dev/_fe_analyzer_shared-67.0.0",
      "packageUri": "lib/",
      "languageVersion": "3.0"
    },
    {
      "name": "analyzer",
      "rootUri": "file:///C:/Users/AhmadSh/AppData/Local/Pub/Cache/hosted/pub.dev/analyzer-6.4.1",
      "packageUri": "lib/",
      "languageVersion": "3.0"
    },
    {
      "name": "args",
      "rootUri": "file:///C:/Users/AhmadSh/AppData/Local/Pub/Cache/hosted/pub.dev/args-2.5.0",
      "packageUri": "lib/",
      "languageVersion": "3.0"
    },
    {
      "name": "async",
      "rootUri": "file:///C:/Users/AhmadSh/AppData/Local/Pub/Cache/hosted/pub.dev/async-2.11.0",
      "packageUri": "lib/",
      "languageVersion": "2.18"
    },
    {
      "name": "boolean_selector",
      "rootUri": "file:///C:/Users/AhmadSh/AppData/Local/Pub/Cache/hosted/pub.dev/boolean_selector-2.1.1",
      "packageUri": "lib/",
      "languageVersion": "2.17"
    },
    {
      "name": "build",
      "rootUri": "file:///C:/Users/AhmadSh/AppData/Local/Pub/Cache/hosted/pub.dev/build-2.4.1",
      "packageUri": "lib/",
      "languageVersion": "2.19"
    },
    {
      "name": "build_config",
      "rootUri": "file:///C:/Users/AhmadSh/AppData/Local/Pub/Cache/hosted/pub.dev/build_config-1.1.1",
      "packageUri": "lib/",
      "languageVersion": "2.14"
    },
    {
      "name": "build_daemon",
      "rootUri": "file:///C:/Users/AhmadSh/AppData/Local/Pub/Cache/hosted/pub.dev/build_daemon-4.0.1",
      "packageUri": "lib/",
      "languageVersion": "3.0"
    },
    {
      "name": "build_resolvers",
      "rootUri": "file:///C:/Users/AhmadSh/AppData/Local/Pub/Cache/hosted/pub.dev/build_resolvers-2.4.2",
      "packageUri": "lib/",
      "languageVersion": "3.0"
    },
    {
      "name": "build_runner",
      "rootUri": "file:///C:/Users/AhmadSh/AppData/Local/Pub/Cache/hosted/pub.dev/build_runner-2.4.9",
      "packageUri": "lib/",
      "languageVersion": "3.0"
    },
    {
      "name": "build_runner_core",
      "rootUri": "file:///C:/Users/AhmadSh/AppData/Local/Pub/Cache/hosted/pub.dev/build_runner_core-7.3.0",
      "packageUri": "lib/",
      "languageVersion": "3.0"
    },
    {
      "name": "built_collection",
      "rootUri": "file:///C:/Users/AhmadSh/AppData/Local/Pub/Cache/hosted/pub.dev/built_collection-5.1.1",
      "packageUri": "lib/",
      "languageVersion": "2.12"
    },
    {
      "name": "built_value",
      "rootUri": "file:///C:/Users/AhmadSh/AppData/Local/Pub/Cache/hosted/pub.dev/built_value-8.9.2",
      "packageUri": "lib/",
      "languageVersion": "3.0"
    },
    {
      "name": "characters",
      "rootUri": "file:///C:/Users/AhmadSh/AppData/Local/Pub/Cache/hosted/pub.dev/characters-1.3.0",
      "packageUri": "lib/",
      "languageVersion": "2.12"
    },
    {
      "name": "charts_common",
      "rootUri": "file:///C:/Users/AhmadSh/AppData/Local/Pub/Cache/git/charts_common-dff4abba6b184078ace6263cd00d13b5726bb3bc/",
      "packageUri": "lib/",
      "languageVersion": "2.12"
    },
    {
      "name": "checked_yaml",
      "rootUri": "file:///C:/Users/AhmadSh/AppData/Local/Pub/Cache/hosted/pub.dev/checked_yaml-2.0.3",
      "packageUri": "lib/",
      "languageVersion": "2.19"
    },
    {
      "name": "clock",
      "rootUri": "file:///C:/Users/AhmadSh/AppData/Local/Pub/Cache/hosted/pub.dev/clock-1.1.1",
      "packageUri": "lib/",
      "languageVersion": "2.12"
    },
    {
      "name": "code_builder",
      "rootUri": "file:///C:/Users/AhmadSh/AppData/Local/Pub/Cache/hosted/pub.dev/code_builder-4.10.0",
      "packageUri": "lib/",
      "languageVersion": "3.0"
    },
    {
      "name": "collection",
      "rootUri": "file:///C:/Users/AhmadSh/AppData/Local/Pub/Cache/hosted/pub.dev/collection-1.18.0",
      "packageUri": "lib/",
      "languageVersion": "2.18"
    },
    {
      "name": "convert",
      "rootUri": "file:///C:/Users/AhmadSh/AppData/Local/Pub/Cache/hosted/pub.dev/convert-3.1.1",
      "packageUri": "lib/",
      "languageVersion": "2.18"
    },
    {
      "name": "coverage",
      "rootUri": "file:///C:/Users/AhmadSh/AppData/Local/Pub/Cache/hosted/pub.dev/coverage-1.7.2",
      "packageUri": "lib/",
      "languageVersion": "3.0"
    },
    {
      "name": "crypto",
      "rootUri": "file:///C:/Users/AhmadSh/AppData/Local/Pub/Cache/hosted/pub.dev/crypto-3.0.3",
      "packageUri": "lib/",
      "languageVersion": "2.19"
    },
    {
      "name": "cupertino_icons",
      "rootUri": "file:///C:/Users/AhmadSh/AppData/Local/Pub/Cache/hosted/pub.dev/cupertino_icons-1.0.6",
      "packageUri": "lib/",
      "languageVersion": "2.19"
    },
    {
      "name": "dart_style",
      "rootUri": "file:///C:/Users/AhmadSh/AppData/Local/Pub/Cache/hosted/pub.dev/dart_style-2.3.6",
      "packageUri": "lib/",
      "languageVersion": "3.0"
    },
    {
      "name": "fake_async",
      "rootUri": "file:///C:/Users/AhmadSh/AppData/Local/Pub/Cache/hosted/pub.dev/fake_async-1.3.1",
      "packageUri": "lib/",
      "languageVersion": "2.12"
    },
    {
      "name": "file",
      "rootUri": "file:///C:/Users/AhmadSh/AppData/Local/Pub/Cache/hosted/pub.dev/file-7.0.0",
      "packageUri": "lib/",
      "languageVersion": "3.0"
    },
    {
      "name": "fixnum",
      "rootUri": "file:///C:/Users/AhmadSh/AppData/Local/Pub/Cache/hosted/pub.dev/fixnum-1.1.0",
      "packageUri": "lib/",
      "languageVersion": "2.19"
    },
    {
      "name": "flutter",
      "rootUri": "file:///C:/flutter/packages/flutter",
      "packageUri": "lib/",
      "languageVersion": "3.2"
    },
    {
      "name": "flutter_test",
      "rootUri": "file:///C:/flutter/packages/flutter_test",
      "packageUri": "lib/",
      "languageVersion": "3.2"
    },
    {
      "name": "frontend_server_client",
      "rootUri": "file:///C:/Users/AhmadSh/AppData/Local/Pub/Cache/hosted/pub.dev/frontend_server_client-3.2.0",
      "packageUri": "lib/",
      "languageVersion": "2.12"
    },
    {
      "name": "glob",
      "rootUri": "file:///C:/Users/AhmadSh/AppData/Local/Pub/Cache/hosted/pub.dev/glob-2.1.2",
      "packageUri": "lib/",
      "languageVersion": "2.19"
    },
    {
      "name": "graphs",
      "rootUri": "file:///C:/Users/AhmadSh/AppData/Local/Pub/Cache/hosted/pub.dev/graphs-2.3.1",
      "packageUri": "lib/",
      "languageVersion": "2.18"
    },
    {
      "name": "http_multi_server",
      "rootUri": "file:///C:/Users/AhmadSh/AppData/Local/Pub/Cache/hosted/pub.dev/http_multi_server-3.2.1",
      "packageUri": "lib/",
      "languageVersion": "2.12"
    },
    {
      "name": "http_parser",
      "rootUri": "file:///C:/Users/AhmadSh/AppData/Local/Pub/Cache/hosted/pub.dev/http_parser-4.0.2",
      "packageUri": "lib/",
      "languageVersion": "2.12"
    },
    {
      "name": "intl",
      "rootUri": "file:///C:/Users/AhmadSh/AppData/Local/Pub/Cache/hosted/pub.dev/intl-0.17.0",
      "packageUri": "lib/",
      "languageVersion": "2.12"
    },
    {
      "name": "io",
      "rootUri": "file:///C:/Users/AhmadSh/AppData/Local/Pub/Cache/hosted/pub.dev/io-1.0.4",
      "packageUri": "lib/",
      "languageVersion": "2.12"
    },
    {
      "name": "js",
      "rootUri": "file:///C:/Users/AhmadSh/AppData/Local/Pub/Cache/hosted/pub.dev/js-0.6.7",
      "packageUri": "lib/",
      "languageVersion": "2.19"
    },
    {
      "name": "json_annotation",
      "rootUri": "file:///C:/Users/AhmadSh/AppData/Local/Pub/Cache/hosted/pub.dev/json_annotation-4.8.1",
      "packageUri": "lib/",
      "languageVersion": "2.19"
    },
    {
      "name": "leak_tracker",
      "rootUri": "file:///C:/Users/AhmadSh/AppData/Local/Pub/Cache/hosted/pub.dev/leak_tracker-10.0.0",
      "packageUri": "lib/",
      "languageVersion": "3.1"
    },
    {
      "name": "leak_tracker_flutter_testing",
      "rootUri": "file:///C:/Users/AhmadSh/AppData/Local/Pub/Cache/hosted/pub.dev/leak_tracker_flutter_testing-2.0.1",
      "packageUri": "lib/",
      "languageVersion": "3.1"
    },
    {
      "name": "leak_tracker_testing",
      "rootUri": "file:///C:/Users/AhmadSh/AppData/Local/Pub/Cache/hosted/pub.dev/leak_tracker_testing-2.0.1",
      "packageUri": "lib/",
      "languageVersion": "3.1"
    },
    {
      "name": "logging",
      "rootUri": "file:///C:/Users/AhmadSh/AppData/Local/Pub/Cache/hosted/pub.dev/logging-1.2.0",
      "packageUri": "lib/",
      "languageVersion": "2.19"
    },
    {
      "name": "matcher",
      "rootUri": "file:///C:/Users/AhmadSh/AppData/Local/Pub/Cache/hosted/pub.dev/matcher-0.12.16+1",
      "packageUri": "lib/",
      "languageVersion": "3.0"
    },
    {
      "name": "material_color_utilities",
      "rootUri": "file:///C:/Users/AhmadSh/AppData/Local/Pub/Cache/hosted/pub.dev/material_color_utilities-0.8.0",
      "packageUri": "lib/",
      "languageVersion": "2.17"
    },
    {
      "name": "meta",
      "rootUri": "file:///C:/Users/AhmadSh/AppData/Local/Pub/Cache/hosted/pub.dev/meta-1.11.0",
      "packageUri": "lib/",
      "languageVersion": "2.12"
    },
    {
      "name": "mime",
      "rootUri": "file:///C:/Users/AhmadSh/AppData/Local/Pub/Cache/hosted/pub.dev/mime-1.0.5",
      "packageUri": "lib/",
      "languageVersion": "3.2"
    },
    {
      "name": "mockito",
      "rootUri": "file:///C:/Users/AhmadSh/AppData/Local/Pub/Cache/hosted/pub.dev/mockito-5.4.4",
      "packageUri": "lib/",
      "languageVersion": "3.1"
    },
    {
      "name": "node_preamble",
      "rootUri": "file:///C:/Users/AhmadSh/AppData/Local/Pub/Cache/hosted/pub.dev/node_preamble-2.0.2",
      "packageUri": "lib/",
      "languageVersion": "2.12"
    },
    {
      "name": "package_config",
      "rootUri": "file:///C:/Users/AhmadSh/AppData/Local/Pub/Cache/hosted/pub.dev/package_config-2.1.0",
      "packageUri": "lib/",
      "languageVersion": "2.12"
    },
    {
      "name": "path",
      "rootUri": "file:///C:/Users/AhmadSh/AppData/Local/Pub/Cache/hosted/pub.dev/path-1.9.0",
      "packageUri": "lib/",
      "languageVersion": "3.0"
    },
    {
      "name": "pool",
      "rootUri": "file:///C:/Users/AhmadSh/AppData/Local/Pub/Cache/hosted/pub.dev/pool-1.5.1",
      "packageUri": "lib/",
      "languageVersion": "2.12"
    },
    {
      "name": "pub_semver",
      "rootUri": "file:///C:/Users/AhmadSh/AppData/Local/Pub/Cache/hosted/pub.dev/pub_semver-2.1.4",
      "packageUri": "lib/",
      "languageVersion": "2.17"
    },
    {
      "name": "pubspec_parse",
      "rootUri": "file:///C:/Users/AhmadSh/AppData/Local/Pub/Cache/hosted/pub.dev/pubspec_parse-1.2.3",
      "packageUri": "lib/",
      "languageVersion": "2.18"
    },
    {
      "name": "shelf",
      "rootUri": "file:///C:/Users/AhmadSh/AppData/Local/Pub/Cache/hosted/pub.dev/shelf-1.4.1",
      "packageUri": "lib/",
      "languageVersion": "2.17"
    },
    {
      "name": "shelf_packages_handler",
      "rootUri": "file:///C:/Users/AhmadSh/AppData/Local/Pub/Cache/hosted/pub.dev/shelf_packages_handler-3.0.2",
      "packageUri": "lib/",
      "languageVersion": "2.17"
    },
    {
      "name": "shelf_static",
      "rootUri": "file:///C:/Users/AhmadSh/AppData/Local/Pub/Cache/hosted/pub.dev/shelf_static-1.1.2",
      "packageUri": "lib/",
      "languageVersion": "2.17"
    },
    {
      "name": "shelf_web_socket",
      "rootUri": "file:///C:/Users/AhmadSh/AppData/Local/Pub/Cache/hosted/pub.dev/shelf_web_socket-1.0.4",
      "packageUri": "lib/",
      "languageVersion": "2.17"
    },
    {
      "name": "sky_engine",
      "rootUri": "file:///C:/flutter/bin/cache/pkg/sky_engine",
      "packageUri": "lib/",
      "languageVersion": "3.2"
    },
    {
      "name": "source_gen",
      "rootUri": "file:///C:/Users/AhmadSh/AppData/Local/Pub/Cache/hosted/pub.dev/source_gen-1.5.0",
      "packageUri": "lib/",
      "languageVersion": "3.0"
    },
    {
      "name": "source_map_stack_trace",
      "rootUri": "file:///C:/Users/AhmadSh/AppData/Local/Pub/Cache/hosted/pub.dev/source_map_stack_trace-2.1.1",
      "packageUri": "lib/",
      "languageVersion": "2.12"
    },
    {
      "name": "source_maps",
      "rootUri": "file:///C:/Users/AhmadSh/AppData/Local/Pub/Cache/hosted/pub.dev/source_maps-0.10.12",
      "packageUri": "lib/",
      "languageVersion": "2.18"
    },
    {
      "name": "source_span",
      "rootUri": "file:///C:/Users/AhmadSh/AppData/Local/Pub/Cache/hosted/pub.dev/source_span-1.10.0",
      "packageUri": "lib/",
      "languageVersion": "2.18"
    },
    {
      "name": "stack_trace",
      "rootUri": "file:///C:/Users/AhmadSh/AppData/Local/Pub/Cache/hosted/pub.dev/stack_trace-1.11.1",
      "packageUri": "lib/",
      "languageVersion": "2.18"
    },
    {
      "name": "stream_channel",
      "rootUri": "file:///C:/Users/AhmadSh/AppData/Local/Pub/Cache/hosted/pub.dev/stream_channel-2.1.2",
      "packageUri": "lib/",
      "languageVersion": "2.19"
    },
    {
      "name": "stream_transform",
      "rootUri": "file:///C:/Users/AhmadSh/AppData/Local/Pub/Cache/hosted/pub.dev/stream_transform-2.1.0",
      "packageUri": "lib/",
      "languageVersion": "2.14"
    },
    {
      "name": "string_scanner",
      "rootUri": "file:///C:/Users/AhmadSh/AppData/Local/Pub/Cache/hosted/pub.dev/string_scanner-1.2.0",
      "packageUri": "lib/",
      "languageVersion": "2.18"
    },
    {
      "name": "term_glyph",
      "rootUri": "file:///C:/Users/AhmadSh/AppData/Local/Pub/Cache/hosted/pub.dev/term_glyph-1.2.1",
      "packageUri": "lib/",
      "languageVersion": "2.12"
    },
    {
      "name": "test",
      "rootUri": "file:///C:/Users/AhmadSh/AppData/Local/Pub/Cache/hosted/pub.dev/test-1.24.9",
      "packageUri": "lib/",
      "languageVersion": "3.0"
    },
    {
      "name": "test_api",
      "rootUri": "file:///C:/Users/AhmadSh/AppData/Local/Pub/Cache/hosted/pub.dev/test_api-0.6.1",
      "packageUri": "lib/",
      "languageVersion": "3.0"
    },
    {
      "name": "test_core",
      "rootUri": "file:///C:/Users/AhmadSh/AppData/Local/Pub/Cache/hosted/pub.dev/test_core-0.5.9",
      "packageUri": "lib/",
      "languageVersion": "3.0"
    },
    {
      "name": "timing",
      "rootUri": "file:///C:/Users/AhmadSh/AppData/Local/Pub/Cache/hosted/pub.dev/timing-1.0.1",
      "packageUri": "lib/",
      "languageVersion": "2.14"
    },
    {
      "name": "typed_data",
      "rootUri": "file:///C:/Users/AhmadSh/AppData/Local/Pub/Cache/hosted/pub.dev/typed_data-1.3.2",
      "packageUri": "lib/",
      "languageVersion": "2.17"
    },
    {
      "name": "vector_math",
      "rootUri": "file:///C:/Users/AhmadSh/AppData/Local/Pub/Cache/hosted/pub.dev/vector_math-2.1.4",
      "packageUri": "lib/",
      "languageVersion": "2.14"
    },
    {
      "name": "vm_service",
      "rootUri": "file:///C:/Users/AhmadSh/AppData/Local/Pub/Cache/hosted/pub.dev/vm_service-13.0.0",
      "packageUri": "lib/",
      "languageVersion": "3.0"
    },
    {
      "name": "watcher",
      "rootUri": "file:///C:/Users/AhmadSh/AppData/Local/Pub/Cache/hosted/pub.dev/watcher-1.1.0",
      "packageUri": "lib/",
      "languageVersion": "3.0"
    },
    {
      "name": "web",
      "rootUri": "file:///C:/Users/AhmadSh/AppData/Local/Pub/Cache/hosted/pub.dev/web-0.5.1",
      "packageUri": "lib/",
      "languageVersion": "3.3"
    },
    {
      "name": "web_socket_channel",
      "rootUri": "file:///C:/Users/AhmadSh/AppData/Local/Pub/Cache/hosted/pub.dev/web_socket_channel-2.4.5",
      "packageUri": "lib/",
      "languageVersion": "3.3"
    },
    {
      "name": "webkit_inspection_protocol",
      "rootUri": "file:///C:/Users/AhmadSh/AppData/Local/Pub/Cache/hosted/pub.dev/webkit_inspection_protocol-1.2.1",
      "packageUri": "lib/",
      "languageVersion": "3.0"
    },
    {
      "name": "yaml",
      "rootUri": "file:///C:/Users/AhmadSh/AppData/Local/Pub/Cache/hosted/pub.dev/yaml-3.1.2",
      "packageUri": "lib/",
      "languageVersion": "2.19"
    },
    {
      "name": "charts_flutter",
      "rootUri": "../",
      "packageUri": "lib/",
      "languageVersion": "2.12"
    }
  ],
  "generated": "2024-04-14T14:08:22.480490Z",
  "generator": "pub",
  "generatorVersion": "3.3.3"
}
